{
  "launcher": {
    "name": "LAUNCHER",
    "builds": [
    {
    "os": "windows",
    "architecture": "i386",
    "url": "https://static.tibia.com/launcher/launcher-windows-current/package.json"
    },
    {
    "os": "macos",
    "architecture": "x86_64",
    "url": "https://static.tibia.com/launcher/launcher-macos-current/package.json"
    },
    {
    "os": "linux",
    "architecture": "x86_64",
    "url": "https://static.tibia.com/launcher/launcher-linux-current/package.json"
    }
    ]
  },
  "packages": [
  {
    "name": "Tibia",
    "directoryname": "Tibia",
    "logolinktarget": "https://www.tibia.com/",
    "installautomatically": true,
    "builds": [
      {
      "os": "windows",
      "architecture": "i386",
      "url": "https://static.tibia.com/launcher/tibiaclient-windows-current/package.json",
      "assetsurl": "https://static.tibia.com/launcher/assets-current/assets.json"
      },
      {
      "os": "macos",
      "architecture": "x86_64",
      "url": "https://static.tibia.com/launcher/tibiaclient-macos-current/package.json",
      "assetsurl": "https://static.tibia.com/launcher/assets-current/assets-macos.json"
      },
      {
      "os": "linux",
      "architecture": "x86_64",
      "url": "https://static.tibia.com/launcher/tibiaclient-linux-current/package.json",
      "assetsurl": "https://static.tibia.com/launcher/assets-current/assets.json"
      }
    ]
  }
  ],
  "hardwaresurvey": "https://www.tibia.com/services/hardwarereceiver.php",
  "hints": "https://static.tibia.com/hints.json"
}
